{
 "a": {
  "description": {
   "_prob": 0.0007651109410864575, 
   "of": {
    "_prob": 1.0, 
    "the": {
     "_prob": 1.0, 
     "various": {
      "_prob": 1.0, 
      "_rank": 4
     }, 
     "_rank": 4
    }, 
    "_rank": 4
   }, 
   "_rank": 4
  }, 
  "system": {
   "in": {
    "_prob": 0.8666666666666667, 
    "which": {
     "_prob": 1.0, 
     "the": {
      "_prob": 1.0, 
      "_rank": 26
     }, 
     "_rank": 26
    }, 
    "_rank": 26
   }, 
   "_prob": 0.005738332058148432, 
   "of": {
    "_prob": 0.13333333333333333, 
    "_rank": 4, 
    "field": {
     "_prob": 0.25, 
     "training": {
      "_prob": 1.0, 
      "_rank": 1
     }, 
     "_rank": 1
    }, 
    "practical": {
     "_prob": 0.75, 
     "surgery": {
      "_prob": 1.0, 
      "_rank": 3
     }, 
     "_rank": 3
    }
   }, 
   "_rank": 30
  }, 
  "book": {
   "_prob": 0.00038255547054322876, 
   "about": {
    "_prob": 1.0, 
    "the": {
     "_prob": 1.0, 
     "garden": {
      "_prob": 1.0, 
      "_rank": 2
     }, 
     "_rank": 2
    }, 
    "_rank": 2
   }, 
   "_rank": 2
  }, 
  "general": {
   "_prob": 0.006503442999234889, 
   "_rank": 34, 
   "account": {
    "_prob": 0.029411764705882353, 
    "of": {
     "_prob": 1.0, 
     "the": {
      "_prob": 1.0, 
      "_rank": 1
     }, 
     "_rank": 1
    }, 
    "_rank": 1
   }, 
   "term": {
    "_prob": 0.9705882352941176, 
    "for": {
     "_prob": 0.2727272727272727, 
     "the": {
      "_prob": 1.0, 
      "_rank": 9
     }, 
     "_rank": 9
    }, 
    "used": {
     "_prob": 0.7272727272727273, 
     "to": {
      "_prob": 1.0, 
      "_rank": 24
     }, 
     "_rank": 24
    }, 
    "_rank": 33
   }
  }, 
  "class": {
   "_prob": 0.0013389441469013007, 
   "book": {
    "_prob": 1.0, 
    "of": {
     "_prob": 1.0, 
     "chemistry": {
      "_prob": 1.0, 
      "_rank": 7
     }, 
     "_rank": 7
    }, 
    "_rank": 7
   }, 
   "_rank": 7
  }, 
  "large": {
   "_prob": 0.0045906656465187455, 
   "part": {
    "_prob": 1.0, 
    "of": {
     "_prob": 1.0, 
     "the": {
      "_prob": 1.0, 
      "_rank": 24
     }, 
     "_rank": 24
    }, 
    "_rank": 24
   }, 
   "_rank": 24
  }, 
  "model": {
   "_prob": 0.006885998469778117, 
   "of": {
    "_prob": 1.0, 
    "knowledge": {
     "_prob": 1.0, 
     "_rank": 36, 
     "development": {
      "_prob": 1.0, 
      "_rank": 36
     }
    }, 
    "_rank": 36
   }, 
   "_rank": 36
  }, 
  "behavior": {
   "_prob": 0.006885998469778117, 
   "_rank": 36, 
   "and": {
    "_prob": 1.0, 
    "your": {
     "_prob": 1.0, 
     "heart": {
      "_prob": 1.0, 
      "_rank": 36
     }, 
     "_rank": 36
    }, 
    "_rank": 36
   }
  }, 
  "week": {
   "_prob": 0.00784238714613619, 
   "inside": {
    "_prob": 1.0, 
    "come": {
     "_prob": 1.0, 
     "_rank": 41, 
     "and": {
      "_prob": 1.0, 
      "_rank": 41
     }
    }, 
    "_rank": 41
   }, 
   "_rank": 41
  }, 
  "computer": {
   "_prob": 0.0265876052027544, 
   "can": {
    "_prob": 0.31654676258992803, 
    "only": {
     "_prob": 1.0, 
     "_rank": 44, 
     "catch": {
      "_prob": 1.0, 
      "_rank": 44
     }
    }, 
    "_rank": 44
   }, 
   "program": {
    "_prob": 0.6834532374100719, 
    "for": {
     "_prob": 1.0, 
     "the": {
      "_prob": 1.0, 
      "_rank": 95
     }, 
     "_rank": 95
    }, 
    "_rank": 95
   }, 
   "_rank": 139
  }, 
  "brief": {
   "history": {
    "_prob": 0.5555555555555556, 
    "of": {
     "_prob": 1.0, 
     "the": {
      "_prob": 1.0, 
      "_rank": 35
     }, 
     "_rank": 35
    }, 
    "_rank": 35
   }, 
   "_prob": 0.012050497322111706, 
   "description": {
    "_prob": 0.4444444444444444, 
    "of": {
     "_prob": 1.0, 
     "the": {
      "_prob": 1.0, 
      "_rank": 28
     }, 
     "_rank": 28
    }, 
    "_rank": 28
   }, 
   "_rank": 63
  }, 
  "gene": {
   "_prob": 0.009372609028309106, 
   "_rank": 49, 
   "may": {
    "_prob": 1.0, 
    "be": {
     "_prob": 1.0, 
     "associated": {
      "_prob": 1.0, 
      "_rank": 49
     }, 
     "_rank": 49
    }, 
    "_rank": 49
   }
  }, 
  "study": {
   "in": {
    "_prob": 1.0, 
    "industrial": {
     "_prob": 1.0, 
     "conflict": {
      "_prob": 1.0, 
      "_rank": 6
     }, 
     "_rank": 6
    }, 
    "_rank": 6
   }, 
   "_prob": 0.0011476664116296864, 
   "_rank": 6
  }, 
  "a": {
   "_prob": 0.004781943381790359, 
   "_rank": 25, 
   "a": {
    "_prob": 1.0, 
    "_rank": 25, 
    "a": {
     "_prob": 1.0, 
     "_rank": 25, 
     "a": {
      "_prob": 1.0, 
      "_rank": 25
     }
    }
   }
  }, 
  "for": {
   "_prob": 0.015302218821729151, 
   "the": {
    "_prob": 1.0, 
    "treatment": {
     "_prob": 1.0, 
     "of": {
      "_prob": 1.0, 
      "_rank": 80
     }, 
     "_rank": 80
    }, 
    "_rank": 80
   }, 
   "_rank": 80
  }, 
  "state": {
   "_prob": 0.013006885998469778, 
   "of": {
    "_prob": 1.0, 
    "the": {
     "_prob": 1.0, 
     "art": {
      "_prob": 1.0, 
      "_rank": 68
     }, 
     "_rank": 68
    }, 
    "_rank": 68
   }, 
   "_rank": 68
  }, 
  "case": {
   "_prob": 0.06752104055087987, 
   "study": {
    "in": {
     "_prob": 0.1501416430594901, 
     "the": {
      "_prob": 1.0, 
      "_rank": 53
     }, 
     "_rank": 53
    }, 
    "_prob": 1.0, 
    "of": {
     "_prob": 0.8498583569405099, 
     "_rank": 300, 
     "the": {
      "_prob": 0.7666666666666667, 
      "_rank": 230
     }, 
     "a": {
      "_prob": 0.23333333333333334, 
      "_rank": 70
     }
    }, 
    "_rank": 353
   }, 
   "_rank": 353
  }, 
  "guide": {
   "_prob": 0.0059296097934200456, 
   "to": {
    "behavioral": {
     "_prob": 0.12903225806451613, 
     "analysis": {
      "_prob": 1.0, 
      "_rank": 4
     }, 
     "_rank": 4
    }, 
    "_prob": 1.0, 
    "conservation": {
     "_prob": 0.8709677419354839, 
     "planning": {
      "_prob": 1.0, 
      "_rank": 27
     }, 
     "_rank": 27
    }, 
    "_rank": 31
   }, 
   "_rank": 31
  }, 
  "review": {
   "_prob": 0.03404743687834736, 
   "of": {
    "social": {
     "history": {
      "_prob": 1.0, 
      "_rank": 32
     }, 
     "_prob": 0.1797752808988764, 
     "_rank": 32
    }, 
    "_prob": 1.0, 
    "the": {
     "_prob": 0.8202247191011236, 
     "literature": {
      "_prob": 1.0, 
      "_rank": 146
     }, 
     "_rank": 146
    }, 
    "_rank": 178
   }, 
   "_rank": 178
  }, 
  "table": {
   "_prob": 0.017597551644988524, 
   "or": {
    "_prob": 1.0, 
    "place": {
     "_prob": 1.0, 
     "to": {
      "_prob": 1.0, 
      "_rank": 92
     }, 
     "_rank": 92
    }, 
    "_rank": 92
   }, 
   "_rank": 92
  }, 
  "lawyer": {
   "_prob": 0.015302218821729151, 
   "who": {
    "_prob": 1.0, 
    "_rank": 80, 
    "will": {
     "_prob": 1.0, 
     "_rank": 80, 
     "try": {
      "_prob": 1.0, 
      "_rank": 80
     }
    }
   }, 
   "_rank": 80
  }, 
  "term": {
   "_prob": 0.03882938026013772, 
   "used": {
    "_prob": 1.0, 
    "to": {
     "_prob": 1.0, 
     "describe": {
      "_prob": 0.916256157635468, 
      "_rank": 186
     }, 
     "indicate": {
      "_prob": 0.08374384236453201, 
      "_rank": 17
     }, 
     "_rank": 203
    }, 
    "_rank": 203
   }, 
   "_rank": 203
  }, 
  "_rank": 5228, 
  "by": {
   "_prob": 0.0045906656465187455, 
   "his": {
    "_prob": 1.0, 
    "draft": {
     "_prob": 1.0, 
     "board": {
      "_prob": 1.0, 
      "_rank": 24
     }, 
     "_rank": 24
    }, 
    "_rank": 24
   }, 
   "_rank": 24
  }, 
  "manual": {
   "_prob": 0.0009563886763580719, 
   "of": {
    "_prob": 1.0, 
    "_rank": 5, 
    "the": {
     "_prob": 0.4, 
     "science": {
      "_prob": 1.0, 
      "_rank": 2
     }, 
     "_rank": 2
    }, 
    "psychological": {
     "_prob": 0.6, 
     "_rank": 3, 
     "medicine": {
      "_prob": 1.0, 
      "_rank": 3
     }
    }
   }, 
   "_rank": 5
  }, 
  "woman": {
   "_prob": 0.009946442234123947, 
   "with": {
    "_prob": 1.0, 
    "_rank": 52, 
    "a": {
     "_prob": 1.0, 
     "_rank": 52, 
     "past": {
      "_prob": 1.0, 
      "_rank": 52
     }
    }
   }, 
   "_rank": 52
  }, 
  "portrait": {
   "_prob": 0.0034429992348890587, 
   "of": {
    "_prob": 1.0, 
    "the": {
     "artist": {
      "_prob": 1.0, 
      "_rank": 18
     }, 
     "_prob": 1.0, 
     "_rank": 18
    }, 
    "_rank": 18
   }, 
   "_rank": 18
  }, 
  "resolution": {
   "_prob": 0.01128538638102525, 
   "crystal": {
    "_prob": 1.0, 
    "structure": {
     "_prob": 1.0, 
     "of": {
      "_prob": 1.0, 
      "_rank": 59
     }, 
     "_rank": 59
    }, 
    "_rank": 59
   }, 
   "_rank": 59
  }, 
  "protein": {
   "_prob": 0.018936495791889826, 
   "is": {
    "_prob": 1.0, 
    "_rank": 99, 
    "a": {
     "_prob": 1.0, 
     "_rank": 99, 
     "high": {
      "_prob": 1.0, 
      "_rank": 99
     }
    }
   }, 
   "_rank": 99
  }, 
  "new": {
   "first": {
    "_prob": 0.6777777777777778, 
    "_rank": 61, 
    "amendment": {
     "_prob": 1.0, 
     "right": {
      "_prob": 1.0, 
      "_rank": 61
     }, 
     "_rank": 61
    }
   }, 
   "_prob": 0.017214996174445295, 
   "guide": {
    "_prob": 0.03333333333333333, 
    "to": {
     "_prob": 1.0, 
     "the": {
      "_prob": 1.0, 
      "_rank": 3
     }, 
     "_rank": 3
    }, 
    "_rank": 3
   }, 
   "approach": {
    "_prob": 0.28888888888888886, 
    "to": {
     "_prob": 1.0, 
     "the": {
      "_prob": 1.0, 
      "_rank": 26
     }, 
     "_rank": 26
    }, 
    "_rank": 26
   }, 
   "_rank": 90
  }, 
  "farm": {
   "team": {
    "_prob": 1.0, 
    "of": {
     "_prob": 1.0, 
     "the": {
      "_prob": 1.0, 
      "_rank": 47
     }, 
     "_rank": 47
    }, 
    "_rank": 47
   }, 
   "_prob": 0.008990053557765876, 
   "_rank": 47
  }, 
  "preliminary": {
   "_prob": 0.0005738332058148432, 
   "discourse": {
    "_prob": 1.0, 
    "on": {
     "_prob": 1.0, 
     "the": {
      "_prob": 1.0, 
      "_rank": 3
     }, 
     "_rank": 3
    }, 
    "_rank": 3
   }, 
   "_rank": 3
  }, 
  "summary": {
   "_prob": 0.0007651109410864575, 
   "of": {
    "_prob": 1.0, 
    "modern": {
     "history": {
      "_prob": 1.0, 
      "_rank": 4
     }, 
     "_prob": 1.0, 
     "_rank": 4
    }, 
    "_rank": 4
   }, 
   "_rank": 4
  }, 
  "short": {
   "history": {
    "_prob": 1.0, 
    "of": {
     "_prob": 1.0, 
     "the": {
      "_prob": 1.0, 
      "_rank": 42
     }, 
     "_rank": 42
    }, 
    "_rank": 42
   }, 
   "_prob": 0.008033664881407804, 
   "_rank": 42
  }, 
  "tail": {
   "_prob": 0.008990053557765876, 
   "is": {
    "_prob": 1.0, 
    "added": {
     "_prob": 1.0, 
     "to": {
      "_prob": 1.0, 
      "_rank": 47
     }, 
     "_rank": 47
    }, 
    "_rank": 47
   }, 
   "_rank": 47
  }, 
  "period": {
   "_prob": 0.012433052792654935, 
   "is": {
    "more": {
     "_prob": 1.0, 
     "than": {
      "_prob": 1.0, 
      "_rank": 65
     }, 
     "_rank": 65
    }, 
    "_prob": 1.0, 
    "_rank": 65
   }, 
   "_rank": 65
  }, 
  "symbol": {
   "_prob": 0.009946442234123947, 
   "or": {
    "_prob": 1.0, 
    "design": {
     "that": {
      "_prob": 1.0, 
      "_rank": 52
     }, 
     "_prob": 1.0, 
     "_rank": 52
    }, 
    "_rank": 52
   }, 
   "_rank": 52
  }, 
  "_prob": 1.0, 
  "to": {
   "_prob": 0.08091048201989288, 
   "select": {
    "_prob": 1.0, 
    "_rank": 423, 
    "all": {
     "_prob": 0.6855791962174941, 
     "the": {
      "_prob": 0.6275862068965518, 
      "_rank": 182
     }, 
     "of": {
      "_prob": 0.3724137931034483, 
      "_rank": 108
     }, 
     "_rank": 290
    }, 
    "everything": {
     "in": {
      "_prob": 1.0, 
      "_rank": 45
     }, 
     "_prob": 0.10638297872340426, 
     "_rank": 45
    }, 
    "the": {
     "_prob": 0.20803782505910165, 
     "entire": {
      "_prob": 1.0, 
      "_rank": 88
     }, 
     "_rank": 88
    }
   }, 
   "_rank": 423
  }, 
  "and": {
   "_prob": 0.014728385615914307, 
   "_rank": 77, 
   "a": {
    "_prob": 1.0, 
    "return": {
     "_prob": 0.36363636363636365, 
     "envelope": {
      "_prob": 1.0, 
      "_rank": 28
     }, 
     "_rank": 28
    }, 
    "new": {
     "_prob": 0.6363636363636364, 
     "agreement": {
      "_prob": 1.0, 
      "_rank": 49
     }, 
     "_rank": 49
    }, 
    "_rank": 77
   }
  }, 
  "first": {
   "_prob": 0.00038255547054322876, 
   "course": {
    "_prob": 1.0, 
    "of": {
     "physical": {
      "_prob": 1.0, 
      "_rank": 2
     }, 
     "_prob": 1.0, 
     "_rank": 2
    }, 
    "_rank": 2
   }, 
   "_rank": 2
  }, 
  "condition": {
   "in": {
    "_prob": 1.0, 
    "which": {
     "_prob": 1.0, 
     "the": {
      "_prob": 1.0, 
      "_rank": 49
     }, 
     "_rank": 49
    }, 
    "_rank": 49
   }, 
   "_prob": 0.009372609028309106, 
   "_rank": 49
  }, 
  "of": {
   "_prob": 0.28385615914307577, 
   "his": {
    "_prob": 0.029649595687331536, 
    "opinion": {
     "_prob": 1.0, 
     "because": {
      "_prob": 1.0, 
      "_rank": 44
     }, 
     "_rank": 44
    }, 
    "_rank": 44
   }, 
   "the": {
    "act": {
     "shall": {
      "_prob": 0.2127659574468085, 
      "_rank": 10
     }, 
     "_prob": 0.03263888888888889, 
     "_rank": 47, 
     "is": {
      "_prob": 0.3829787234042553, 
      "_rank": 18
     }, 
     "and": {
      "_prob": 0.40425531914893614, 
      "_rank": 19
     }
    }, 
    "_prob": 0.9703504043126685, 
    "land": {
     "revenue": {
      "_prob": 1.0, 
      "_rank": 6
     }, 
     "_prob": 0.004166666666666667, 
     "_rank": 6
    }, 
    "general": {
     "_prob": 0.08541666666666667, 
     "business": {
      "_prob": 1.0, 
      "_rank": 123
     }, 
     "_rank": 123
    }, 
    "peace": {
     "_prob": 0.0798611111111111, 
     "agreement": {
      "_prob": 1.0, 
      "_rank": 115
     }, 
     "_rank": 115
    }, 
    "income": {
     "_prob": 0.029166666666666667, 
     "tax": {
      "_prob": 1.0, 
      "_rank": 42
     }, 
     "_rank": 42
    }, 
    "code": {
     "_prob": 0.05347222222222222, 
     "of": {
      "_prob": 1.0, 
      "_rank": 77
     }, 
     "_rank": 77
    }, 
    "real": {
     "_prob": 0.05486111111111111, 
     "property": {
      "_prob": 1.0, 
      "_rank": 79
     }, 
     "_rank": 79
    }, 
    "insurance": {
     "act": {
      "_prob": 1.0, 
      "_rank": 18
     }, 
     "_prob": 0.0125, 
     "_rank": 18
    }, 
    "national": {
     "_prob": 0.009027777777777777, 
     "industrial": {
      "_prob": 1.0, 
      "_rank": 13
     }, 
     "_rank": 13
    }, 
    "transfer": {
     "_prob": 0.02361111111111111, 
     "of": {
      "_prob": 1.0, 
      "_rank": 34
     }, 
     "_rank": 34
    }, 
    "social": {
     "_prob": 0.19375, 
     "security": {
      "_prob": 1.0, 
      "_rank": 279
     }, 
     "_rank": 279
    }, 
    "tax": {
     "_prob": 0.029861111111111113, 
     "law": {
      "_prob": 1.0, 
      "_rank": 43
     }, 
     "_rank": 43
    }, 
    "evidence": {
     "act": {
      "_prob": 1.0, 
      "_rank": 109
     }, 
     "_prob": 0.07569444444444444, 
     "_rank": 109
    }, 
    "criminal": {
     "_prob": 0.03819444444444445, 
     "procedure": {
      "_prob": 1.0, 
      "_rank": 55
     }, 
     "_rank": 55
    }, 
    "government": {
     "_prob": 0.06388888888888888, 
     "of": {
      "_prob": 1.0, 
      "_rank": 92
     }, 
     "_rank": 92
    }, 
    "principal": {
     "act": {
      "_prob": 1.0, 
      "_rank": 26
     }, 
     "_prob": 0.018055555555555554, 
     "_rank": 26
    }, 
    "constitution": {
     "_prob": 0.09930555555555555, 
     "_rank": 143, 
     "of": {
      "_prob": 0.8111888111888111, 
      "_rank": 116
     }, 
     "and": {
      "_prob": 0.1888111888111888, 
      "_rank": 27
     }
    }, 
    "_rank": 1440, 
    "economic": {
     "_prob": 0.005555555555555556, 
     "opportunity": {
      "_prob": 1.0, 
      "_rank": 8
     }, 
     "_rank": 8
    }, 
    "companies": {
     "act": {
      "_prob": 1.0, 
      "_rank": 101
     }, 
     "_prob": 0.07013888888888889, 
     "_rank": 101
    }, 
    "representation": {
     "_prob": 0.020833333333333332, 
     "of": {
      "_prob": 1.0, 
      "_rank": 30
     }, 
     "_rank": 30
    }
   }, 
   "_rank": 1484
  }, 
  "in": {
   "_prob": 0.04246365723029839, 
   "the": {
    "presence": {
     "_prob": 0.25225225225225223, 
     "of": {
      "_prob": 1.0, 
      "_rank": 56
     }, 
     "_rank": 56
    }, 
    "_prob": 1.0, 
    "treatment": {
     "_prob": 0.6126126126126126, 
     "of": {
      "_prob": 1.0, 
      "_rank": 136
     }, 
     "_rank": 136
    }, 
    "_rank": 222, 
    "case": {
     "_prob": 0.13513513513513514, 
     "of": {
      "_prob": 1.0, 
      "_rank": 30
     }, 
     "_rank": 30
    }
   }, 
   "_rank": 222
  }, 
  "at": {
   "_prob": 0.08186687069625095, 
   "the": {
    "_prob": 1.0, 
    "same": {
     "time": {
      "_prob": 1.0, 
      "_rank": 220
     }, 
     "_prob": 0.514018691588785, 
     "_rank": 220
    }, 
    "end": {
     "_prob": 0.48598130841121495, 
     "of": {
      "_prob": 1.0, 
      "_rank": 208
     }, 
     "_rank": 208
    }, 
    "_rank": 428
   }, 
   "_rank": 428
  }, 
  "critical": {
   "history": {
    "_prob": 1.0, 
    "of": {
     "_prob": 1.0, 
     "the": {
      "_prob": 1.0, 
      "_rank": 2
     }, 
     "_rank": 2
    }, 
    "_rank": 2
   }, 
   "_prob": 0.00038255547054322876, 
   "_rank": 2
  }, 
  "as": {
   "_prob": 0.01740627390971691, 
   "_rank": 91, 
   "well": {
    "_prob": 0.4175824175824176, 
    "as": {
     "_prob": 1.0, 
     "the": {
      "_prob": 1.0, 
      "_rank": 38
     }, 
     "_rank": 38
    }, 
    "_rank": 38
   }, 
   "a": {
    "_prob": 0.5824175824175825, 
    "result": {
     "_prob": 0.4528301886792453, 
     "of": {
      "_prob": 1.0, 
      "_rank": 24
     }, 
     "_rank": 24
    }, 
    "_rank": 53, 
    "function": {
     "_prob": 0.5471698113207547, 
     "of": {
      "_prob": 1.0, 
      "_rank": 29
     }, 
     "_rank": 29
    }
   }
  }, 
  "history": {
   "_prob": 0.0038255547054322878, 
   "of": {
    "_prob": 1.0, 
    "art": {
     "in": {
      "_prob": 1.0, 
      "_rank": 5
     }, 
     "_prob": 0.25, 
     "_rank": 5
    }, 
    "ancient": {
     "_prob": 0.55, 
     "sculpture": {
      "_prob": 0.8181818181818182, 
      "_rank": 9
     }, 
     "art": {
      "_prob": 0.18181818181818182, 
      "_rank": 2
     }, 
     "_rank": 11
    }, 
    "the": {
     "_prob": 0.2, 
     "book": {
      "_prob": 0.5, 
      "_rank": 2
     }, 
     "life": {
      "_prob": 0.5, 
      "_rank": 2
     }, 
     "_rank": 4
    }, 
    "_rank": 20
   }, 
   "_rank": 20
  }, 
  "student": {
   "in": {
    "_prob": 0.8073394495412844, 
    "_rank": 176, 
    "high": {
     "_prob": 1.0, 
     "school": {
      "_prob": 1.0, 
      "_rank": 176
     }, 
     "_rank": 176
    }
   }, 
   "_prob": 0.041698546289211935, 
   "_rank": 218, 
   "and": {
    "_prob": 0.1926605504587156, 
    "super": {
     "_prob": 1.0, 
     "athlete": {
      "_prob": 1.0, 
      "_rank": 42
     }, 
     "_rank": 42
    }, 
    "_rank": 42
   }
  }, 
  "report": {
   "_prob": 0.0045906656465187455, 
   "to": {
    "_prob": 1.0, 
    "the": {
     "_prob": 1.0, 
     "president": {
      "_prob": 1.0, 
      "_rank": 24
     }, 
     "_rank": 24
    }, 
    "_rank": 24
   }, 
   "_rank": 24
  }
 }
}