{
    "aesthetic": {
        "feeling": {
            "the": {
                "feeling": {
                    "of": 10
                }
            }
        },
        "perception": {
            "of": {
                "the": {
                    "world": 20,
                    "work": 30
                },
                "their": {
                    "female": 40
                }
            },
            "and": {
                "the": {
                    "works": 50,
                    "work": 5,
                    "environment": 5,
                    "design": 15,
                    "painting": 15,
                    "music": 100
                }
            }
        }
    }
}
